{
  "project_info": {
    "project_number": "774004257613",
    "firebase_url": "https://psycotest-58247.firebaseio.com",
    "project_id": "psycotest-58247",
    "storage_bucket": "psycotest-58247.appspot.com"
  },
  "client": [
    {
      "client_info": {
        "mobilesdk_app_id": "1:774004257613:android:c359717ddf2ebb78",
        "android_client_info": {
          "package_name": "com.andes.chameleon.testfolders"
        }
      },
      "oauth_client": [
        {
          "client_id": "774004257613-pmfe0sflgeiv0j050sm9r70mv1o1r9iu.apps.googleusercontent.com",
          "client_type": 1,
          "android_info": {
            "package_name": "com.andes.chameleon.testfolders",
            "certificate_hash": "2b06ee2e62278803fe57f2b9e097309c22a151b8"
          }
        },
        {
          "client_id": "774004257613-h34dagh9pvrbojjavaa35qn0kmg3hvsq.apps.googleusercontent.com",
          "client_type": 1,
          "android_info": {
            "package_name": "com.andes.chameleon.testfolders",
            "certificate_hash": "7a2003bfd41502a95d7281aca849502e7548bd1b"
          }
        },
        {
          "client_id": "774004257613-m6luab9kiukuvlfuc3p807fcd65t8bj5.apps.googleusercontent.com",
          "client_type": 3
        }
      ],
      "api_key": [
        {
          "current_key": "AIzaSyBo2Ejl4CqsoKHidH7jFj33C8LRiKUV6ys"
        }
      ],
      "services": {
        "appinvite_service": {
          "other_platform_oauth_client": [
            {
              "client_id": "774004257613-m6luab9kiukuvlfuc3p807fcd65t8bj5.apps.googleusercontent.com",
              "client_type": 3
            }
          ]
        }
      }
    },
    {
      "client_info": {
        "mobilesdk_app_id": "1:774004257613:android:48e271671fd1c98f",
        "android_client_info": {
          "package_name": "com.example.psychotestexamined"
        }
      },
      "oauth_client": [
        {
          "client_id": "774004257613-2cb6v3n586meeip2v37b3uhg1qqjsto4.apps.googleusercontent.com",
          "client_type": 1,
          "android_info": {
            "package_name": "com.example.psychotestexamined",
            "certificate_hash": "a92bf444c66f29fd9bff920e846bf8f804865e89"
          }
        },
        {
          "client_id": "774004257613-udofplr1hvlde6g3i2v5dndq36p8asr4.apps.googleusercontent.com",
          "client_type": 1,
          "android_info": {
            "package_name": "com.example.psychotestexamined",
            "certificate_hash": "2b06ee2e62278803fe57f2b9e097309c22a151b8"
          }
        },
        {
          "client_id": "774004257613-m6luab9kiukuvlfuc3p807fcd65t8bj5.apps.googleusercontent.com",
          "client_type": 3
        }
      ],
      "api_key": [
        {
          "current_key": "AIzaSyBo2Ejl4CqsoKHidH7jFj33C8LRiKUV6ys"
        }
      ],
      "services": {
        "appinvite_service": {
          "other_platform_oauth_client": [
            {
              "client_id": "774004257613-m6luab9kiukuvlfuc3p807fcd65t8bj5.apps.googleusercontent.com",
              "client_type": 3
            }
          ]
        }
      }
    },
    {
      "client_info": {
        "mobilesdk_app_id": "1:774004257613:android:fb886888d6c259ec",
        "android_client_info": {
          "package_name": "com.example.psycotest"
        }
      },
      "oauth_client": [
        {
          "client_id": "774004257613-m6luab9kiukuvlfuc3p807fcd65t8bj5.apps.googleusercontent.com",
          "client_type": 3
        }
      ],
      "api_key": [
        {
          "current_key": "AIzaSyBo2Ejl4CqsoKHidH7jFj33C8LRiKUV6ys"
        }
      ],
      "services": {
        "appinvite_service": {
          "other_platform_oauth_client": [
            {
              "client_id": "774004257613-m6luab9kiukuvlfuc3p807fcd65t8bj5.apps.googleusercontent.com",
              "client_type": 3
            }
          ]
        }
      }
    }
  ],
  "configuration_version": "1"
}